%YAML 1.1
%TAG !u! tag:unity3d.com,2011:
--- !u!1045 &1
EditorBuildSettings:
  m_ObjectHideFlags: 0
  serializedVersion: 2
  m_Scenes:
  - enabled: 1
    path: Assets/Scenes/Menu.unity
    guid: d5f24638c50807f42a249e96169e6676
  - enabled: 1
    path: Assets/Scenes/Level 1.unity
    guid: f9905456cd5cc8a488ae94a5b7996548
  - enabled: 1
    path: Assets/Scenes/TS.Level2.unity
    guid: 5c67991df56679b42a2c4b396b97aa36
  - enabled: 1
    path: Assets/Scenes/Salamander Level 3.unity
    guid: 1cc8b5771bc033f45a9a73886574dab1
  - enabled: 1
    path: Assets/Scenes/Lvl4.unity
    guid: 583efc4e6f68a4e609a1463b4d8a488c
